# 
# Wavefront material file
# Converted by the DEEP Exploration  3.5.10.1242
# Right Hemisphere, LTD
# http://www.righthemisphere.com/
# 

newmtl ____Default
Ka 0.588 0.588 0.588
Kd 0.588 0.588 0.588
Ks 0.9 0.9 0.9
illum 2
Ns 27.8576
map_Kd key.bmp
map_bump key.bmp
bump key.bmp
